Assignment-1/test_higher_order.vcd
$date
	Mon Feb 06 16:08:15 2023
$end
$version
	Icarus Verilog
$end
$timescale
	1ps
$end
$scope module test_bench $end
$var wire 1 ! cout $end
$var wire 16 " sum [15:0] $end
$var wire 1 # OF $end
$var reg 16 $ a [15:0] $end
$var reg 16 % b [15:0] $end
$var reg 1 & cin $end
$var reg 1 ' control $end
$var reg 1 ( sign $end
$scope module c $end
$var wire 16 ) A [15:0] $end
$var wire 16 * B [15:0] $end
$var wire 1 + C12 $end
$var wire 1 , C8 $end
$var wire 1 & Ci $end
$var wire 1 ! Co $end
$var wire 1 # OF $end
$var wire 16 - b_temp1 [15:0] $end
$var wire 16 . b_temp2 [15:0] $end
$var wire 16 / b_temp3 [15:0] $end
$var wire 16 0 c [15:0] $end
$var wire 16 1 c_not [15:0] $end
$var wire 1 ' control $end
$var wire 1 2 of_temp1 $end
$var wire 1 3 of_temp2 $end
$var wire 1 4 of_temp3 $end
$var wire 1 5 of_temp4 $end
$var wire 16 6 op3 [15:0] $end
$var wire 1 7 s_not $end
$var wire 1 ( sign $end
$var wire 16 8 sum [15:0] $end
$var wire 16 9 op2 [15:0] $end
$var wire 1 : dummy $end
$var wire 4 ; cp1 [3:0] $end
$var wire 4 < cp [3:0] $end
$var wire 3 = carry1 [2:0] $end
$var wire 3 > carry [2:0] $end
$var wire 9 ? c_temp [8:0] $end
$var wire 4 @ Pi [3:0] $end
$var wire 4 A Gi [3:0] $end
$scope module cla1 $end
$var wire 4 B A [3:0] $end
$var wire 4 C B [3:0] $end
$var wire 1 D Ci $end
$var wire 1 E Co $end
$var wire 1 F Cp $end
$var wire 4 G temp [3:0] $end
$var wire 4 H sum [3:0] $end
$var wire 4 I carry [3:0] $end
$var wire 4 J P [3:0] $end
$var wire 4 K G [3:0] $end
$upscope $end
$scope module cla2 $end
$var wire 4 L A [3:0] $end
$var wire 4 M B [3:0] $end
$var wire 1 N Ci $end
$var wire 1 O Co $end
$var wire 1 P Cp $end
$var wire 4 Q temp [3:0] $end
$var wire 4 R sum [3:0] $end
$var wire 4 S carry [3:0] $end
$var wire 4 T P [3:0] $end
$var wire 4 U G [3:0] $end
$upscope $end
$scope module cla3 $end
$var wire 4 V A [3:0] $end
$var wire 4 W B [3:0] $end
$var wire 1 X Ci $end
$var wire 1 Y Co $end
$var wire 1 Z Cp $end
$var wire 4 [ temp [3:0] $end
$var wire 4 \ sum [3:0] $end
$var wire 4 ] carry [3:0] $end
$var wire 4 ^ P [3:0] $end
$var wire 4 _ G [3:0] $end
$upscope $end
$scope module cla4 $end
$var wire 4 ` A [3:0] $end
$var wire 4 a B [3:0] $end
$var wire 1 b Ci $end
$var wire 1 : Co $end
$var wire 1 c Cp $end
$var wire 4 d temp [3:0] $end
$var wire 4 e sum [3:0] $end
$var wire 4 f carry [3:0] $end
$var wire 4 g P [3:0] $end
$var wire 4 h G [3:0] $end
$upscope $end
$scope module cla5 $end
$var wire 4 i A [3:0] $end
$var wire 4 j B [3:0] $end
$var wire 1 & Ci $end
$var wire 1 k Co $end
$var wire 1 l Cp $end
$var wire 1 m Gi $end
$var wire 1 n Pi $end
$var wire 1 o g_temp2 $end
$var wire 1 p g_temp31 $end
$var wire 1 q g_temp32 $end
$var wire 4 r sum [3:0] $end
$var wire 4 s p_temp [3:0] $end
$var wire 3 t g_temp [2:0] $end
$var wire 4 u carry [3:0] $end
$var wire 4 v P [3:0] $end
$var wire 4 w G [3:0] $end
$upscope $end
$scope module cla6 $end
$var wire 4 x A [3:0] $end
$var wire 4 y B [3:0] $end
$var wire 1 z Ci $end
$var wire 1 { Co $end
$var wire 1 | Cp $end
$var wire 1 } Gi $end
$var wire 1 ~ Pi $end
$var wire 1 !" g_temp2 $end
$var wire 1 "" g_temp31 $end
$var wire 1 #" g_temp32 $end
$var wire 4 $" sum [3:0] $end
$var wire 4 %" p_temp [3:0] $end
$var wire 3 &" g_temp [2:0] $end
$var wire 4 '" carry [3:0] $end
$var wire 4 (" P [3:0] $end
$var wire 4 )" G [3:0] $end
$upscope $end
$scope module cla7 $end
$var wire 4 *" A [3:0] $end
$var wire 4 +" B [3:0] $end
$var wire 1 , Ci $end
$var wire 1 ," Co $end
$var wire 1 -" Cp $end
$var wire 1 ." Gi $end
$var wire 1 /" Pi $end
$var wire 1 0" g_temp2 $end
$var wire 1 1" g_temp31 $end
$var wire 1 2" g_temp32 $end
$var wire 4 3" sum [3:0] $end
$var wire 4 4" p_temp [3:0] $end
$var wire 3 5" g_temp [2:0] $end
$var wire 4 6" carry [3:0] $end
$var wire 4 7" P [3:0] $end
$var wire 4 8" G [3:0] $end
$upscope $end
$scope module cla8 $end
$var wire 4 9" A [3:0] $end
$var wire 4 :" B [3:0] $end
$var wire 1 + Ci $end
$var wire 1 ! Co $end
$var wire 1 ;" Cp $end
$var wire 1 <" Gi $end
$var wire 1 =" Pi $end
$var wire 1 >" g_temp2 $end
$var wire 1 ?" g_temp31 $end
$var wire 1 @" g_temp32 $end
$var wire 4 A" sum [3:0] $end
$var wire 4 B" p_temp [3:0] $end
$var wire 3 C" g_temp [2:0] $end
$var wire 4 D" carry [3:0] $end
$var wire 4 E" P [3:0] $end
$var wire 4 F" G [3:0] $end
$upscope $end
$upscope $end
$upscope $end
$enddefinitions $end
$comment Show the parameter values. $end
$dumpall
$end
#0
$dumpvars
b0 F"
b0 E"
b0 D"
b0 C"
b0 B"
b0 A"
0@"
0?"
0>"
0="
0<"
0;"
b0 :"
b0 9"
b0 8"
b0 7"
b0 6"
b0 5"
b0 4"
b0 3"
02"
01"
00"
0/"
0."
0-"
0,"
b0 +"
b0 *"
b0 )"
b0 ("
b0 '"
b0 &"
b0 %"
b0 $"
0#"
0""
0!"
0~
0}
0|
0{
0z
b0 y
b0 x
b10 w
b1 v
b100 u
b0 t
b0 s
b101 r
0q
0p
0o
0n
0m
0l
0k
b11 j
b10 i
bx h
bx g
bx f
bx e
bx d
xc
xb
b0 a
b1111 `
bx _
bx ^
bx ]
bx \
bx [
xZ
xY
xX
b0 W
b1111 V
bx U
bx T
bx S
bx R
bx Q
xP
xO
xN
b0 M
b1111 L
bx K
bx J
bx1 I
bx H
bx G
xF
xE
1D
b0 C
b1100 B
b0 A
b0 @
b0 ?
b0 >
bx =
b0 <
bx ;
x:
bx 9
b101 8
17
b11 6
05
04
03
02
b1111111111111111 1
b0 0
b0 /
b1111111111111100 .
b11 -
0,
0+
b11 *
b10 )
0(
0'
0&
b11 %
b10 $
0#
b101 "
0!
$end
#1000
b1100 J
b1111 T
b1111 ^
b1111 g
b0 h
b0 _
b0 U
b0 K
#2000
bx1 9
bx1 H
bx00 G
#3000
bx001 I
#4000
bx101 9
bx101 H
b0 G
#5000
bx0 S
bx0 ;
0F
0N
bx0 =
0E
b1 I
#6000
bx1 R
bx0 Q
bx11101 9
b1101 H
#7000
bx00 S
#8000
bx111101 9
bx11 R
bx00 Q
#9000
bx000 S
#10000
bx1111101 9
bx111 R
b0 Q
#11000
bx0 ]
bx00 ;
0P
0X
bx00 =
0O
b0 S
#12000
bx1 \
bx0 [
bx111111101 9
b1111 R
#13000
bx00 ]
#14000
bx1111111101 9
bx11 \
bx00 [
#15000
bx000 ]
#16000
bx11111111101 9
bx111 \
b0 [
#17000
bx0 f
bx000 ;
0Z
0b
b0 =
0Y
b0 ]
#18000
bx1 e
bx0 d
bx1111111111101 9
b1111 \
#19000
bx00 f
#20000
1#
14
12
13
1!
b1000 A
1<"
b1000 F"
b100 u
b101 r
b101 "
b101 8
b0 A"
b10 j
b1000 :"
b10 w
b1 v
b0 E"
b1000000000000010 6
b1101 B
b111 `
b1000000000000010 -
b111111111111101 .
b11 i
b1000 9"
bx11111111111101 9
bx11 e
bx00 d
b1000000000000010 %
b1000000000000010 *
b1000000000000011 $
b1000000000000011 )
#21000
b1101 J
b111 g
bx000 f
#22000
b1 G
b1100 H
bx111111111111100 9
bx111 e
b0 d
#23000
b0 ;
0c
b11 I
0:
b0 f
#24000
b1110 H
b111111111111110 9
b111 e
#40000
1-"
1;"
1,"
1|
1{
b1111 4"
b1111 6"
b1111 B"
b1111 D"
1,
1+
b1111 %"
b1111 '"
1#
1z
b10001001 ?
b1111 <
1l
14
b111 >
1k
12
03
1m
1~
b0 $"
1/"
b0 3"
b1110 @
1="
1!
b1100 u
1q
b0 t
b1 A
0<"
b0 A"
b1111 ("
b1111 7"
b1010 w
b0 F"
b1111 E"
b1001 "
b1001 8
b1001 r
b1111 y
b1111 +"
b1110 j
b111 :"
b101 v
b0 1
b111111111111110 /
b111111111111110 6
b1000 B
b1111 `
b1111111111111111 0
b0 -
b1111111111111000 .
b1011 i
1'
b111 %
b111 *
b1000000000001011 $
b1000000000001011 )
#41000
b1000 J
b1111 g
#42000
b1110 <
0l
b1001 ?
b111 B"
b110 u
0q
b110 r
b1001 A
1<"
b110 @
0="
b1000000000000110 "
b1000000000000110 8
b1000 A"
b1011 w
b0 v
b1000 F"
b111 E"
b1011 j
b1111 :"
b1111111111111011 6
b1111111111111011 /
b0 G
b1011 H
b1111111111111011 9
b1111 e
#43000
b1 I
#44000
1o
b1000000000000100 "
b1000000000000100 8
b100 r
b1001 w
b10 v
b1001 j
b1111111111111001 6
b1111111111111001 /
b1111111111111001 9
b1001 H
#60000
0|
0-"
b0 <
0;"
0{
0,"
b0 6"
b0 D"
0+
0,
b0 '"
05
b0 %"
0~
b0 $"
b0 4"
0/"
b0 3"
0z
b0 ?
02
03
b0 >
0k
0!
b0 B"
b0 ("
b0 7"
b100 u
0o
0m
b101 r
b0 A
0<"
b0 @
0="
b101 "
b101 8
b0 A"
b11 j
b0 y
b0 +"
b0 :"
b10 w
b1 v
b0 F"
b0 E"
b11 -
b11 6
0#
b1100 B
b1111111111111111 1
b0 /
04
b1111111111111100 .
b10 i
b0 9"
b0 0
07
b11 %
b11 *
b10 $
b10 )
0'
1(
#61000
b1100 J
#62000
b1111111111111101 9
b1101 H
#80000
1#
15
13
b1000 <
1;"
b1000 D"
b100 F"
b100 u
b101 r
b1000000000000101 "
b1000000000000101 8
b1000 A"
b10 j
b100 :"
b10 w
b1 v
b0 E"
b100000000000010 6
b1101 B
b1011 `
b100000000000010 -
b1011111111111101 .
b11 i
b100 9"
b100000000000010 %
b100000000000010 *
b100000000000011 $
b100000000000011 )
#81000
b1101 J
b1011 g
#82000
b1 G
b1100 H
b1011111111111100 9
b1011 e
#83000
b11 I
#84000
b1011111111111110 9
b1110 H
#100000
0#
05
1l
1z
1|
1,
b1111 <
1-"
1+
12
03
1k
1{
b111 >
1,"
1!
1m
b1111 '"
1}
b1111 6"
1."
b1111 D"
b1111 A
1<"
b1111 )"
b1111 8"
b1111 F"
b1000 u
0n
b1011 r
0~
b1111 $"
b0 @
0/"
b1111 3"
b0 C"
b1111111111111011 "
b1111111111111011 8
b1111 A"
b1110 j
b1111 y
b1111 +"
b1111 :"
b1100 w
b11 v
b0 ("
b0 7"
b0 E"
b1111111111111110 6
b1 B
b0 L
b0 V
b0 `
b1111111111111110 -
b1 .
b1101 i
b1111 x
b1111 *"
b1111 9"
b1111111111111110 %
b1111111111111110 *
b1111111111111101 $
b1111111111111101 )
#101000
b1 J
b0 T
b0 ^
b0 g
#102000
b10 H
b0 R
b0 \
b10 9
b0 e
#120000
1#
15
13
1z
0|
0,
0-"
0+
b1 <
0;"
1k
0{
b1 >
0,"
b1000 u
1m
b100 t
b11 r
b1 '"
0}
b0 %"
0~
b1 $"
b0 6"
b1001 A
0."
b0 4"
b0 @
0/"
b0 3"
b0 D"
b0 B"
b10011 "
b10011 8
b0 A"
b1101 j
b0 y
b0 +"
b1000 :"
b100 w
b1011 v
b0 )"
b0 ("
b0 8"
b0 7"
b1000 F"
b0 E"
b1000000000001101 6
b10 B
b1111 L
b1111 V
b111 `
b1000000000001101 -
b111111111110010 .
b110 i
b0 x
b0 *"
b1000 9"
b1000000000001101 %
b1000000000001101 *
b1000000000000110 $
b1000000000000110 )
#121000
b10 J
b1111 T
b1111 ^
b111 g
#122000
b10 G
b1 H
b1111 R
b1111 \
b111111111110001 9
b111 e
#123000
b101 I
#124000
b0 G
b111111111110111 9
b111 H
#125000
b1 I
#126000
b111111111110011 9
b11 H
#140000
1-"
1;"
1,"
b1111 4"
b1111 6"
b1111 B"
b1111 D"
b1111 <
1|
1,
1+
b111 >
1{
b1111 '"
b10001001 ?
0#
05
b1111 %"
1~
b0 $"
1/"
b0 3"
b1110 @
1="
12
03
1!
b1111 ("
b1111 7"
b1 A
0<"
b11 "
b11 8
b0 A"
b1111 y
b1111 +"
b1111 :"
b0 F"
b1111 E"
b1111111111111101 6
b0 L
b0 V
b0 `
b1111111111111101 -
b10 .
b0 9"
b1111111111111101 %
b1111111111111101 *
b110 $
b110 )
#141000
b0 T
b0 ^
b0 g
#142000
b0 R
b0 \
b11 9
b0 e
#160000
0#
05
0|
0,
0-"
0+
b1 <
0;"
02
03
0{
0,"
0!
1z
b1 '"
b0 6"
b0 D"
b0 ?
b1 >
1k
b1 A
1m
1p
b0 %"
0~
b1 $"
b0 4"
0/"
b0 3"
b0 B"
b0 @
0="
b0 A"
b0 ("
b0 7"
b0 E"
1o
b0 y
b0 +"
b0 :"
b1110 u
b1 t
b10000 "
b10000 8
b0 r
b11 j
b1 w
b1110 v
b0 1
b11 /
b11 6
b0 B
b1111111111111111 0
b0 -
b0 .
b1101 i
1'
b1111111111111111 %
b1111111111111111 *
b1101 $
b1101 )
#161000
b0 J
#162000
b0 $"
b0 '"
0z
b0 <
0l
b0 >
0k
b0 A
0m
b10 u
0o
0p
b0 t
b1110 "
b1110 8
b1110 r
b1100 v
b1 j
b1 6
b1 /
b1 9
b1 H
#180000
b0 u
b111 r
b110000000000111 "
b110000000000111 8
b110 A"
b0 w
b111 v
b110 E"
b10 B
b1111 L
b1111 V
b111 `
b111111111110010 .
b110 i
b110 9"
b1000000000001101 %
b1000000000001101 *
b110000000000110 $
b110000000000110 )
#181000
b10 J
b1111 T
b1111 ^
b111 g
#182000
1#
15
13
1l
b1001 <
1;"
b1100 u
1q
b1001 r
1~
b1111 $"
b110 @
1/"
b1111 3"
b1100 D"
b1101111111111001 "
b1101111111111001 8
b1101 A"
b10 w
b101 v
b1111 ("
b1111 7"
b110 F"
b1 E"
b11 j
b1111 y
b1111 +"
b111 :"
b111111111110011 6
b111111111110011 /
b11 H
b1111 R
b1111 \
b111111111110011 9
b111 e
